[
  {
    "name":"Активный",
    "roles":[]
  },
  {
    "name":"Гармоничный"
  },
  {
    "name":"Аккуратный",
    "roles":[1,2]
  },
  {
    "name":"Благодарный"
  },
  {
    "name":"Выразительный"
  },
  {
    "name":"Артистичный"
  },
  {
    "name":"Бдительный"
  },
  {
    "name":"Гибкий"
  },
  {
    "name":"Альтруистичный"
  },
  {
    "name":"Амбициозный"
  },
  {
    "name":"Волевой"
  }
]